Alcohol_content,Sweetness,Type,Popular
low,sweet,rose,yes
low,dry,red,no
low,semi-sweet,red,yes
high,sweet,rose,no
low,dry,white,no
low,sweet,white,no
high,semi-sweet,red,no
high,sweet,red,yes
high,dry,red,yes